comp_zonal — comp_zonal • sprawl
…
  library(sprawl)
  options(tibble.width = Inf)
  in_rast  <- get(load(system.file("extdata", "in_rast.rda", package = "sprawl")))
  in_zones <- readshape(system.file("extdata","lc_polys.shp", package = "sprawl"), stringsAsFactors = T)
  stats    <- comp_zonal(in_rast, in_zones, long = FALSE, verbose = FALSE)
#> Warning: attribute variables are assumed to be spatially constant throughout all geometries
  stats
#> $stats
#> Simple feature collection with 552 features and 13 fields
#> geometry type:  POLYGON
#> dimension:      XY
#> bbox:           xmin: 12897990 ymin: 1685995 xmax: 12971590 ymax: 1780601
#> epsg (SRID):    NA
#> proj4string:    +proj=sinu +lon_0=0 +x_0=0 +y_0=0 +a=6371007.181 +b=6371007.181 +units=m +no_defs
#> # A tibble: 552 x 14
#>    id_feat band_n       date    id  lc_type category sup_catego     N      avg   med       sd   min   max          geometry
#>      <int>  <dbl>     <date> <dbl>   <fctr>   <fctr>     <fctr> <int>    <dbl> <dbl>    <dbl> <dbl> <dbl> <S3: sfc_POLYGON>
#>  1       1      1 2013-01-01     1 forest_1   Forest Vegetation    61 4830.820  4747 540.6097  3731  5987 <S3: sfc_POLYGON>
#>  2       1      2 2013-01-09     1 forest_1   Forest Vegetation    61 4605.131  4648 510.8426  3665  5547 <S3: sfc_POLYGON>
#>  3       1      3 2013-01-17     1 forest_1   Forest Vegetation    61 4837.902  4834 557.4429  3640  5827 <S3: sfc_POLYGON>
#>  4       1      4 2013-01-25     1 forest_1   Forest Vegetation    61 4484.984  4411 473.7452  3285  5275 <S3: sfc_POLYGON>
#>  5       1      5 2013-02-02     1 forest_1   Forest Vegetation    61 4284.197  4237 498.7366  3469  5318 <S3: sfc_POLYGON>
#>  6       1      6 2013-02-10     1 forest_1   Forest Vegetation    61 4374.525  4302 471.1914  3317  5363 <S3: sfc_POLYGON>
#>  7       1      7 2013-02-18     1 forest_1   Forest Vegetation    61 4113.246  4123 505.7164  2759  4991 <S3: sfc_POLYGON>
#>  8       1      8 2013-02-26     1 forest_1   Forest Vegetation    61 4050.689  4164 785.0554  1614  5350 <S3: sfc_POLYGON>
#>  9       1      9 2013-03-06     1 forest_1   Forest Vegetation    61 3937.738  3917 452.0158  3039  4850 <S3: sfc_POLYGON>
#> 10       1     10 2013-03-14     1 forest_1   Forest Vegetation    61 4281.672  4282 503.7382  3143  5320 <S3: sfc_POLYGON>
#> # ... with 542 more rows
#> 
#> $alldata
#> Simple feature collection with 147384 features and 9 fields
#> geometry type:  POINT
#> dimension:      XY
#> bbox:           xmin: 12897120 ymin: 1698852 xmax: 12973570 ymax: 1789198
#> epsg (SRID):    NA
#> proj4string:    +proj=sinu +lon_0=0 +x_0=0 +y_0=0 +a=6371007.181 +b=6371007.181 +units=m +no_defs
#> # A tibble: 147,384 x 10
#>    mdxtnq band_n       date N_PIX    id  lc_type category sup_catego value        geometry
#>     <int>  <dbl>     <date> <int> <dbl>   <fctr>   <fctr>     <fctr> <dbl> <S3: sfc_POINT>
#>  1      1      1 2013-01-01     1     1 forest_1   Forest Vegetation  4454 <S3: sfc_POINT>
#>  2      1      1 2013-01-01     2     1 forest_1   Forest Vegetation  4260 <S3: sfc_POINT>
#>  3      1      1 2013-01-01     3     1 forest_1   Forest Vegetation  3987 <S3: sfc_POINT>
#>  4      1      1 2013-01-01     4     1 forest_1   Forest Vegetation  4814 <S3: sfc_POINT>
#>  5      1      1 2013-01-01     5     1 forest_1   Forest Vegetation  5242 <S3: sfc_POINT>
#>  6      1      1 2013-01-01     6     1 forest_1   Forest Vegetation  5353 <S3: sfc_POINT>
#>  7      1      1 2013-01-01     7     1 forest_1   Forest Vegetation  5074 <S3: sfc_POINT>
#>  8      1      1 2013-01-01     8     1 forest_1   Forest Vegetation  4434 <S3: sfc_POINT>
#>  9      1      1 2013-01-01     9     1 forest_1   Forest Vegetation  4224 <S3: sfc_POINT>
#> 10      1      1 2013-01-01    10     1 forest_1   Forest Vegetation  3904 <S3: sfc_POINT>
#> # ... with 147,374 more rows
…
