extract raster values on features of a vector — extract_rast • sprawl
…
out      <- extract_rast(in_rast, in_polys, verbose = FALSE)

# Statistics for the different polygons

as_tibble(out$stats)
#> Simple feature collection with 552 features and 15 fields
#> geometry type:  POLYGON
#> dimension:      XY
#> bbox:           xmin: 12897990 ymin: 1685995 xmax: 12971590 ymax: 1780601
#> epsg (SRID):    NA
#> proj4string:    +proj=sinu +lon_0=0 +x_0=0 +y_0=0 +a=6371007.181 +b=6371007.181 +units=m +no_defs
#> # A tibble: 552 x 16
#>    id_feat band_n       date        area n_pix n_pix_val      avg   med
#>      <dbl>  <dbl>     <date> <S3: units> <int>     <int>    <dbl> <dbl>
#>  1       1      1 2013-01-01 3400057 m^2    61        61 4830.820  4747
#>  2       1      2 2013-01-09 3400057 m^2    61        61 4605.131  4648
#>  3       1      3 2013-01-17 3400057 m^2    61        61 4837.902  4834
#>  4       1      4 2013-01-25 3400057 m^2    61        61 4484.984  4411
#>  5       1      5 2013-02-02 3400057 m^2    61        61 4284.197  4237
#>  6       1      6 2013-02-10 3400057 m^2    61        61 4374.525  4302
#>  7       1      7 2013-02-18 3400057 m^2    61        61 4113.246  4123
#>  8       1      8 2013-02-26 3400057 m^2    61        61 4050.689  4164
#>  9       1      9 2013-03-06 3400057 m^2    61        61 3937.738  3917
#> 10       1     10 2013-03-14 3400057 m^2    61        61 4281.672  4282
#> # ... with 542 more rows, and 8 more variables: sd <dbl>, min <dbl>, max <dbl>,
#> #   id <dbl>, lc_type <fctr>, category <fctr>, sup_catego <fctr>,
#> #   geometry <simple_feature>

# Data from all pixels, grouped by polygon

as_tibble(out$alldata)
#> Simple feature collection with 147384 features and 10 fields
#> geometry type:  POINT
#> dimension:      XY
#> bbox:           xmin: 12898050 ymin: 1685995 xmax: 12971710 ymax: 1780279
#> epsg (SRID):    NA
#> proj4string:    +proj=sinu +lon_0=0 +x_0=0 +y_0=0 +a=6371007.181 +b=6371007.181 +units=m +no_defs
#> # A tibble: 147,384 x 11
#>    id_feat band_n       date n_pix     N value    id  lc_type category
#>      <int>  <int>     <date> <int> <int> <dbl> <dbl>   <fctr>   <fctr>
#>  1       1      1 2013-01-01    61     1  4454     1 forest_1   Forest
#>  2       1      1 2013-01-01    61     2  4260     1 forest_1   Forest
#>  3       1      1 2013-01-01    61     3  4224     1 forest_1   Forest
#>  4       1      1 2013-01-01    61     4  4344     1 forest_1   Forest
#>  5       1      1 2013-01-01    61     5  4489     1 forest_1   Forest
#>  6       1      1 2013-01-01    61     6  4970     1 forest_1   Forest
#>  7       1      1 2013-01-01    61     7  3987     1 forest_1   Forest
#>  8       1      1 2013-01-01    61     8  3904     1 forest_1   Forest
#>  9       1      1 2013-01-01    61     9  3904     1 forest_1   Forest
#> 10       1      1 2013-01-01    61    10  4768     1 forest_1   Forest
#> # ... with 147,374 more rows, and 2 more variables: sup_catego <fctr>,
#> #   geometry <simple_feature>
…
